<?xml version="1.0" encoding="UTF-8" standalone="no"?>
<!-- Created with Inkscape (http://www.inkscape.org/) -->

<svg
   width="210mm"
   height="297mm"
   viewBox="0 0 210 297"
   version="1.1"
   id="svg5"
   sodipodi:docname="clpb_bdd_XOR.svg"
   inkscape:version="1.2.2 (b0a8486541, 2022-12-01)"
   xmlns:inkscape="http://www.inkscape.org/namespaces/inkscape"
   xmlns:sodipodi="http://sodipodi.sourceforge.net/DTD/sodipodi-0.dtd"
   xmlns="http://www.w3.org/2000/svg"
   xmlns:svg="http://www.w3.org/2000/svg">
  <sodipodi:namedview
     id="namedview7"
     pagecolor="#ffffff"
     bordercolor="#666666"
     borderopacity="1.0"
     inkscape:showpageshadow="2"
     inkscape:pageopacity="0.0"
     inkscape:pagecheckerboard="0"
     inkscape:deskcolor="#d1d1d1"
     inkscape:document-units="mm"
     showgrid="false"
     inkscape:zoom="0.61647026"
     inkscape:cx="639.93355"
     inkscape:cy="486.64148"
     inkscape:window-width="1535"
     inkscape:window-height="870"
     inkscape:window-x="65"
     inkscape:window-y="30"
     inkscape:window-maximized="1"
     inkscape:current-layer="layer1" />
  <defs
     id="defs2">
    <marker
       style="overflow:visible"
       id="marker4722"
       refX="0"
       refY="0"
       orient="auto-start-reverse"
       inkscape:stockid="EmptyTriangleIn"
       markerWidth="5.8241119"
       markerHeight="6.7330775"
       viewBox="0 0 5.8241121 6.7330776"
       inkscape:isstock="true"
       inkscape:collect="always"
       preserveAspectRatio="xMidYMid">
      <path
         transform="scale(0.5)"
         style="fill:context-fill;fill-rule:evenodd;stroke:context-stroke;stroke-width:2"
         d="M 5.77,0 -2.88,5 V -5 Z"
         id="path4720" />
    </marker>
    <marker
       style="overflow:visible"
       id="marker2393"
       refX="0"
       refY="0"
       orient="auto-start-reverse"
       inkscape:stockid="EmptyTriangleIn"
       markerWidth="5.8241119"
       markerHeight="6.7330775"
       viewBox="0 0 5.8241121 6.7330776"
       inkscape:isstock="true"
       inkscape:collect="always"
       preserveAspectRatio="xMidYMid">
      <path
         transform="scale(0.5)"
         style="fill:context-fill;fill-rule:evenodd;stroke:context-stroke;stroke-width:2"
         d="M 5.77,0 -2.88,5 V -5 Z"
         id="path2391" />
    </marker>
    <marker
       style="overflow:visible"
       id="marker2393-3"
       refX="0"
       refY="0"
       orient="auto-start-reverse"
       inkscape:stockid="EmptyTriangleIn"
       markerWidth="5.8241119"
       markerHeight="6.7330775"
       viewBox="0 0 5.8241121 6.7330776"
       inkscape:isstock="true"
       inkscape:collect="always"
       preserveAspectRatio="xMidYMid">
      <path
         transform="scale(0.5)"
         style="fill:context-fill;fill-rule:evenodd;stroke:context-stroke;stroke-width:2"
         d="M 5.77,0 -2.88,5 V -5 Z"
         id="path2391-6" />
    </marker>
    <marker
       style="overflow:visible"
       id="marker4722-7"
       refX="0"
       refY="0"
       orient="auto-start-reverse"
       inkscape:stockid="EmptyTriangleIn"
       markerWidth="5.8241119"
       markerHeight="6.7330775"
       viewBox="0 0 5.8241121 6.7330776"
       inkscape:isstock="true"
       inkscape:collect="always"
       preserveAspectRatio="xMidYMid">
      <path
         transform="scale(0.5)"
         style="fill:context-fill;fill-rule:evenodd;stroke:context-stroke;stroke-width:2"
         d="M 5.77,0 -2.88,5 V -5 Z"
         id="path4720-5" />
    </marker>
    <marker
       style="overflow:visible"
       id="marker4722-7-8"
       refX="0"
       refY="0"
       orient="auto-start-reverse"
       inkscape:stockid="EmptyTriangleIn"
       markerWidth="5.8241119"
       markerHeight="6.7330775"
       viewBox="0 0 5.8241121 6.7330776"
       inkscape:isstock="true"
       inkscape:collect="always"
       preserveAspectRatio="xMidYMid">
      <path
         transform="scale(0.5)"
         style="fill:context-fill;fill-rule:evenodd;stroke:context-stroke;stroke-width:2"
         d="M 5.77,0 -2.88,5 V -5 Z"
         id="path4720-5-7" />
    </marker>
  </defs>
  <g
     inkscape:label="Layer 1"
     inkscape:groupmode="layer"
     id="layer1">
    <text
       xml:space="preserve"
       style="font-style:normal;font-weight:normal;font-size:10.5833px;line-height:1.25;font-family:sans-serif;letter-spacing:0px;word-spacing:0px;fill:#000000;fill-opacity:1;stroke:none;stroke-width:0.264583"
       x="22.936609"
       y="190.23796"
       id="text562"><tspan
         sodipodi:role="line"
         id="tspan560"
         style="stroke-width:0.264583"
         x="22.936609"
         y="190.23796">X</tspan><tspan
         sodipodi:role="line"
         style="stroke-width:0.264583"
         x="22.936609"
         y="203.46709"
         id="tspan564">0</tspan><tspan
         sodipodi:role="line"
         style="stroke-width:0.264583"
         x="22.936609"
         y="216.69621"
         id="tspan566">0</tspan><tspan
         sodipodi:role="line"
         style="stroke-width:0.264583"
         x="22.936609"
         y="229.92534"
         id="tspan568">1</tspan><tspan
         sodipodi:role="line"
         style="stroke-width:0.264583"
         x="22.936609"
         y="243.15446"
         id="tspan570">1</tspan></text>
    <text
       xml:space="preserve"
       style="font-style:normal;font-weight:normal;font-size:10.5833px;line-height:1.25;font-family:sans-serif;letter-spacing:0px;word-spacing:0px;fill:#000000;fill-opacity:1;stroke:none;stroke-width:0.264583"
       x="42.120941"
       y="187.3349"
       id="text574"><tspan
         sodipodi:role="line"
         id="tspan572"
         style="stroke-width:0.264583"
         x="42.120941"
         y="187.3349">Y</tspan></text>
    <text
       xml:space="preserve"
       style="font-style:normal;font-weight:normal;font-size:10.5833px;line-height:1.25;font-family:sans-serif;letter-spacing:0px;word-spacing:0px;fill:#000000;fill-opacity:1;stroke:none;stroke-width:0.264583"
       x="43.269203"
       y="201.16673"
       id="text578"><tspan
         sodipodi:role="line"
         id="tspan576"
         style="stroke-width:0.264583"
         x="43.269203"
         y="201.16673">0</tspan><tspan
         sodipodi:role="line"
         style="stroke-width:0.264583"
         x="43.269203"
         y="214.39586"
         id="tspan580">1</tspan><tspan
         sodipodi:role="line"
         style="stroke-width:0.264583"
         x="43.269203"
         y="227.62498"
         id="tspan582">0</tspan><tspan
         sodipodi:role="line"
         style="stroke-width:0.264583"
         x="43.269203"
         y="240.85411"
         id="tspan584">1</tspan></text>
    <text
       xml:space="preserve"
       style="font-style:normal;font-weight:normal;font-size:10.5833px;line-height:1.25;font-family:sans-serif;letter-spacing:0px;word-spacing:0px;fill:#000000;fill-opacity:1;stroke:none;stroke-width:0.264583"
       x="69.766861"
       y="185.26363"
       id="text588"><tspan
         sodipodi:role="line"
         id="tspan586"
         style="stroke-width:0.264583"
         x="69.766861"
         y="185.26363">X#Y</tspan></text>
    <text
       xml:space="preserve"
       style="font-style:normal;font-weight:normal;font-size:10.5833px;line-height:1.25;font-family:sans-serif;letter-spacing:0px;word-spacing:0px;fill:#000000;fill-opacity:1;stroke:none;stroke-width:0.264583"
       x="71.401947"
       y="199.16544"
       id="text592"><tspan
         sodipodi:role="line"
         id="tspan590"
         style="stroke-width:0.264583"
         x="71.401947"
         y="199.16544">0</tspan><tspan
         sodipodi:role="line"
         style="stroke-width:0.264583"
         x="71.401947"
         y="212.39456"
         id="tspan594">1</tspan><tspan
         sodipodi:role="line"
         style="stroke-width:0.264583"
         x="71.401947"
         y="225.62369"
         id="tspan596">1</tspan><tspan
         sodipodi:role="line"
         style="stroke-width:0.264583"
         x="71.401947"
         y="238.85281"
         id="tspan598">0</tspan></text>
    <text
       xml:space="preserve"
       style="font-style:normal;font-weight:normal;font-size:10.5833px;line-height:1.25;font-family:sans-serif;letter-spacing:0px;word-spacing:0px;white-space:pre;shape-inside:url(#rect656);display:inline;fill:#000000;fill-opacity:1;stroke:none;stroke-width:0.264583"
       x="99.294319"
       y="109.46815"
       id="text602"><tspan
         x="102.71094"
         y="172.64901"
         id="tspan5572">0</tspan></text>
    <rect
       style="fill:none;stroke:#000000;stroke-width:1.62888"
       id="rect656"
       width="19.08275"
       height="19.503023"
       x="102.71155"
       y="163.01865" />
    <rect
       style="fill:none;stroke:#ff0000;stroke-width:2.59242"
       id="rect656-3"
       width="32.586506"
       height="28.929359"
       x="158.85878"
       y="154.93138" />
    <rect
       style="fill:none;stroke:#000000;stroke-width:2.29715"
       id="rect578"
       width="30.687599"
       height="26.749754"
       x="40.038601"
       y="5.7025008" />
    <rect
       style="fill:none;stroke:#000000;stroke-width:2.67849"
       id="rect580"
       width="39.741848"
       height="40.864269"
       x="35.476845"
       y="64.130341" />
    <rect
       style="fill:none;stroke:#000000;stroke-width:2.84317"
       id="rect582"
       width="42.707451"
       height="33.44865"
       x="34.111057"
       y="134.10965" />
    <path
       style="fill:#0000ff;fill-rule:evenodd;stroke:#0000ff;stroke-width:1;stroke-linecap:butt;stroke-linejoin:miter;stroke-dasharray:1, 3;stroke-dashoffset:0;stroke-opacity:1;marker-end:url(#marker2393)"
       d="m 55.375327,32.452255 -0.01675,31.678086"
       id="path633"
       inkscape:connector-type="polyline"
       inkscape:connector-curvature="0"
       inkscape:connection-start="#rect578"
       inkscape:connection-end="#rect580" />
    <path
       style="font-variation-settings:normal;opacity:1;vector-effect:none;fill:none;fill-opacity:1;fill-rule:evenodd;stroke:#0000ff;stroke-width:1;stroke-linecap:butt;stroke-linejoin:miter;stroke-miterlimit:4;stroke-dasharray:none;stroke-dashoffset:0;stroke-opacity:1;-inkscape-stroke:none;marker-end:url(#marker4722);stop-color:#000000;stop-opacity:1"
       d="m 55.139166,32.231071 c 46.356674,38.557556 36.838313,71.481539 0.06356,101.657399"
       id="path2469"
       inkscape:connector-type="polyline"
       inkscape:connector-curvature="0"
       inkscape:label="path633"
       sodipodi:nodetypes="cc" />
    <text
       xml:space="preserve"
       style="font-style:normal;font-weight:normal;font-size:10.5833px;line-height:1.25;font-family:sans-serif;letter-spacing:0px;word-spacing:0px;white-space:pre;shape-inside:url(#rect656);display:inline;fill:#000000;fill-opacity:1;stroke:none;stroke-width:0.264583"
       x="101.58349"
       y="95.923698"
       id="text2575"><tspan
         x="102.71094"
         y="172.64901"
         id="tspan5574">0</tspan></text>
    <text
       xml:space="preserve"
       style="font-style:normal;font-weight:normal;font-size:10.5833px;line-height:1.25;font-family:sans-serif;letter-spacing:0px;word-spacing:0px;white-space:pre;shape-inside:url(#rect578);display:inline;fill:#000000;fill-opacity:1;stroke:none;stroke-width:0.264583"
       x="113.74016"
       y="34.256042"
       id="text2629"><tspan
         x="40.039062"
         y="15.332607"
         id="tspan5576">3~X</tspan></text>
    <text
       xml:space="preserve"
       style="font-style:normal;font-weight:normal;font-size:10.5833px;line-height:1.25;font-family:sans-serif;letter-spacing:0px;word-spacing:0px;white-space:pre;shape-inside:url(#rect580);display:inline;fill:#000000;fill-opacity:1;stroke:none;stroke-width:0.264583"
       x="70.536461"
       y="103.10512"
       id="text2693"
       transform="matrix(1.9034009,0,0,2.0830241,-28.786774,-63.350648)"><tspan
         x="35.476562"
         y="73.760341"
         id="tspan5578">1~Y</tspan></text>
    <text
       xml:space="preserve"
       style="font-style:normal;font-weight:normal;font-size:10.5833px;line-height:1.25;font-family:sans-serif;letter-spacing:0px;word-spacing:0px;white-space:pre;shape-inside:url(#rect582);display:inline;fill:#000000;fill-opacity:1;stroke:none;stroke-width:0.264583"
       x="67.321022"
       y="164.83163"
       id="text2697"
       transform="matrix(2.1847865,0,0,1.9562079,-40.487346,-128.48624)"><tspan
         x="34.111328"
         y="143.73886"
         id="tspan5580">2~Y</tspan></text>
    <text
       xml:space="preserve"
       style="font-style:normal;font-weight:normal;font-size:10.5833px;line-height:1.25;font-family:sans-serif;letter-spacing:0px;word-spacing:0px;white-space:pre;shape-inside:url(#rect656-3);display:inline;fill:#ff0000;fill-opacity:1;stroke:#ff0000;stroke-width:0.264583"
       x="135.48454"
       y="157.76479"
       id="text2701"
       transform="translate(13.083088,9.5109603)"><tspan
         x="158.85938"
         y="164.56112"
         id="tspan5582">1</tspan></text>
    <path
       style="font-variation-settings:normal;display:inline;opacity:1;vector-effect:none;fill:#0000ff;fill-opacity:1;fill-rule:evenodd;stroke:#0000ff;stroke-width:1;stroke-linecap:butt;stroke-linejoin:miter;stroke-miterlimit:4;stroke-dasharray:1, 3;stroke-dashoffset:0;stroke-opacity:1;-inkscape-stroke:none;marker-end:url(#marker2393);stop-color:#000000;stop-opacity:1"
       d="m 68.52909,104.99461 37.43287,58.02404"
       id="path4513"
       inkscape:connector-type="polyline"
       inkscape:connector-curvature="0"
       inkscape:connection-end="#rect656"
       inkscape:connection-start="#rect580" />
    <path
       style="fill:#0000ff;fill-rule:evenodd;stroke:#0000ff;stroke-width:1;stroke-linecap:butt;stroke-linejoin:miter;stroke-dasharray:none;stroke-opacity:1;marker-end:url(#marker4722)"
       d="M 75.218693,98.633107 158.85878,157.85878"
       id="path4515"
       inkscape:connector-type="polyline"
       inkscape:connector-curvature="0"
       inkscape:connection-start="#rect580"
       inkscape:connection-end="#rect656-3"
       inkscape:label="path633" />
    <path
       style="font-variation-settings:normal;opacity:1;vector-effect:none;fill:#0000ff;fill-opacity:1;fill-rule:evenodd;stroke:#0000ff;stroke-width:1;stroke-linecap:butt;stroke-linejoin:miter;stroke-miterlimit:4;stroke-dasharray:none;stroke-dashoffset:0;stroke-opacity:1;-inkscape-stroke:none;marker-end:url(#marker4722);stop-color:#000000;stop-opacity:1"
       d="m 76.818508,159.08251 25.893042,10.002"
       id="path4583"
       inkscape:connector-type="polyline"
       inkscape:connector-curvature="0"
       inkscape:connection-start="#rect582"
       inkscape:connection-end="#rect656" />
    <path
       style="font-variation-settings:normal;opacity:1;vector-effect:none;fill:#0000ff;fill-opacity:1;fill-rule:evenodd;stroke:#0000ff;stroke-width:1;stroke-linecap:butt;stroke-linejoin:miter;stroke-miterlimit:4;stroke-dasharray:1, 3;stroke-dashoffset:0;stroke-opacity:1;-inkscape-stroke:none;marker-end:url(#marker2393);stop-color:#000000;stop-opacity:1"
       d="m 76.818508,154.14569 82.040272,12.72348"
       id="path4585"
       inkscape:connector-type="polyline"
       inkscape:connector-curvature="0"
       inkscape:connection-start="#rect582"
       inkscape:connection-end="#rect656-3" />
    <text
       xml:space="preserve"
       style="font-style:normal;font-weight:normal;font-size:10.5833px;line-height:1.25;font-family:sans-serif;letter-spacing:0px;word-spacing:0px;fill:#000000;fill-opacity:1;stroke:none;stroke-width:0.264583"
       x="18.800934"
       y="263.21664"
       id="text29638"><tspan
         sodipodi:role="line"
         id="tspan29636"
         style="stroke-width:0.264583"
         x="18.800934"
         y="263.21664">https://www.swi-prolog.org/pldoc/man?section=clpb</tspan></text>
    <text
       xml:space="preserve"
       style="font-style:normal;font-weight:normal;font-size:10.5833px;line-height:1.25;font-family:sans-serif;letter-spacing:0px;word-spacing:0px;fill:#000000;fill-opacity:1;stroke:none;stroke-width:0.264583"
       x="205.8445"
       y="8.4451809"
       id="text4955"><tspan
         sodipodi:role="line"
         id="tspan4953"
         style="stroke-width:0.264583"
         x="205.8445"
         y="8.4451809">v geared</tspan></text>
    <text
       xml:space="preserve"
       style="font-style:normal;font-weight:normal;font-size:10.5833px;line-height:1.25;font-family:sans-serif;letter-spacing:0px;word-spacing:0px;fill:#000000;fill-opacity:1;stroke:none;stroke-width:0.264583"
       x="29.967163"
       y="4.2374659"
       id="text5122"><tspan
         sodipodi:role="line"
         id="tspan5120"
         style="stroke-width:0.264583"
         x="29.967163"
         y="4.2374659">default</tspan></text>
    <text
       xml:space="preserve"
       style="font-style:normal;font-weight:normal;font-size:10.5833px;line-height:1.25;font-family:sans-serif;letter-spacing:0px;word-spacing:0px;white-space:pre;shape-inside:url(#rect656-5);display:inline;fill:#000000;fill-opacity:1;stroke:none;stroke-width:0.264583"
       x="99.294319"
       y="109.46815"
       id="text602-3"><tspan
         x="262.43945"
         y="182.11776"
         id="tspan5584">0</tspan></text>
    <rect
       style="fill:none;stroke:#000000;stroke-width:1.62888"
       id="rect656-5"
       width="19.08275"
       height="19.503023"
       x="262.44006"
       y="172.48856" />
    <rect
       style="fill:none;stroke:#ff0000;stroke-width:2.59242"
       id="rect656-3-6"
       width="32.586506"
       height="28.929359"
       x="318.58728"
       y="164.40129" />
    <rect
       style="fill:none;stroke:#000000;stroke-width:2.29715"
       id="rect578-2"
       width="30.687599"
       height="26.749754"
       x="199.76712"
       y="15.172414" />
    <rect
       style="fill:none;stroke:#000000;stroke-width:2.67849"
       id="rect580-9"
       width="39.741848"
       height="40.864269"
       x="195.20535"
       y="73.60025" />
    <rect
       style="fill:none;stroke:#000000;stroke-width:2.84317"
       id="rect582-1"
       width="42.707451"
       height="33.44865"
       x="193.83957"
       y="143.57956" />
    <path
       style="fill:#0000ff;fill-rule:evenodd;stroke:#0000ff;stroke-width:1;stroke-linecap:butt;stroke-linejoin:miter;stroke-dasharray:1, 3;stroke-dashoffset:0;stroke-opacity:1;marker-end:url(#marker2393-3)"
       d="m 215.10384,41.922168 -0.0168,31.678082"
       id="path633-2"
       inkscape:connector-type="polyline"
       inkscape:connector-curvature="0"
       inkscape:connection-start="#rect578-2"
       inkscape:connection-end="#rect580-9" />
    <path
       style="font-variation-settings:normal;vector-effect:none;fill:none;fill-opacity:1;fill-rule:evenodd;stroke:#0000ff;stroke-width:1;stroke-linecap:butt;stroke-linejoin:miter;stroke-miterlimit:4;stroke-dasharray:none;stroke-dashoffset:0;stroke-opacity:1;-inkscape-stroke:none;marker-end:url(#marker4722-7);stop-color:#000000"
       d="m 214.86767,41.700983 c 41.65572,35.769094 33.18008,69.270547 0.0636,101.657397"
       id="path2469-7"
       inkscape:connector-type="polyline"
       inkscape:connector-curvature="0"
       inkscape:label="path633"
       sodipodi:nodetypes="cc" />
    <text
       xml:space="preserve"
       style="font-style:normal;font-weight:normal;font-size:10.5833px;line-height:1.25;font-family:sans-serif;letter-spacing:0px;word-spacing:0px;white-space:pre;shape-inside:url(#rect656-5);display:inline;fill:#000000;fill-opacity:1;stroke:none;stroke-width:0.264583"
       x="101.58349"
       y="95.923698"
       id="text2575-0"><tspan
         x="262.43945"
         y="182.11776"
         id="tspan5586">0</tspan></text>
    <text
       xml:space="preserve"
       style="font-style:normal;font-weight:normal;font-size:10.5833px;line-height:1.25;font-family:sans-serif;letter-spacing:0px;word-spacing:0px;white-space:pre;shape-inside:url(#rect578-2);display:inline;fill:#000000;fill-opacity:1;stroke:none;stroke-width:0.264583"
       x="113.74016"
       y="34.256042"
       id="text2629-9"><tspan
         x="199.76758"
         y="24.801357"
         id="tspan5588">3~X</tspan></text>
    <text
       xml:space="preserve"
       style="font-style:normal;font-weight:normal;font-size:10.5833px;line-height:1.25;font-family:sans-serif;letter-spacing:0px;word-spacing:0px;white-space:pre;shape-inside:url(#rect580-9);display:inline;fill:#000000;fill-opacity:1;stroke:none;stroke-width:0.264583"
       x="70.536461"
       y="103.10512"
       id="text2693-3"
       transform="matrix(1.9034009,0,0,2.0830241,-171.91257,-70.937568)"><tspan
         x="195.20508"
         y="83.229091"
         id="tspan5590">2~Y</tspan></text>
    <text
       xml:space="preserve"
       style="font-style:normal;font-weight:normal;font-size:10.5833px;line-height:1.25;font-family:sans-serif;letter-spacing:0px;word-spacing:0px;white-space:pre;shape-inside:url(#rect582-1);display:inline;fill:#000000;fill-opacity:1;stroke:none;stroke-width:0.264583"
       x="67.321022"
       y="164.83163"
       id="text2697-6"
       transform="matrix(2.1847865,0,0,1.9562079,-229.13134,-130.36431)"><tspan
         x="193.83984"
         y="153.20956"
         id="tspan5592">1~Y</tspan></text>
    <text
       xml:space="preserve"
       style="font-style:normal;font-weight:normal;font-size:10.5833px;line-height:1.25;font-family:sans-serif;letter-spacing:0px;word-spacing:0px;white-space:pre;shape-inside:url(#rect656-3-6);display:inline;fill:#ff0000;fill-opacity:1;stroke:#ff0000;stroke-width:0.264583"
       x="135.48454"
       y="157.76479"
       id="text2701-0"
       transform="translate(13.083088,9.51096)"><tspan
         x="318.58789"
         y="174.02987"
         id="tspan5594">1</tspan></text>
    <path
       style="font-variation-settings:normal;display:inline;vector-effect:none;fill:#0000ff;fill-opacity:1;fill-rule:evenodd;stroke:#0000ff;stroke-width:1;stroke-linecap:butt;stroke-linejoin:miter;stroke-miterlimit:4;stroke-dasharray:1, 3;stroke-dashoffset:0;stroke-opacity:1;-inkscape-stroke:none;marker-end:url(#marker2393-3);stop-color:#000000"
       d="M 222.04507,116.4634 313.345,171.0302"
       id="path4513-6"
       inkscape:connector-type="polyline"
       inkscape:connector-curvature="0"
       sodipodi:nodetypes="cc" />
    <path
       style="fill:#0000ff;fill-rule:evenodd;stroke:#0000ff;stroke-width:0.792059;stroke-linecap:butt;stroke-linejoin:miter;stroke-dasharray:none;stroke-opacity:1;marker-end:url(#marker4722-7)"
       d="m 220.36919,116.2642 38.38582,56.58573"
       id="path4515-2"
       inkscape:connector-type="polyline"
       inkscape:connector-curvature="0"
       inkscape:label="path633"
       sodipodi:nodetypes="cc" />
    <path
       style="fill:#0000ff;fill-rule:evenodd;stroke:#0000ff;stroke-width:0.870322;stroke-linecap:butt;stroke-linejoin:miter;stroke-dasharray:none;stroke-opacity:1;marker-end:url(#marker4722-7-8)"
       d="m 239.82087,161.98636 74.28117,14.30675"
       id="path4515-2-9"
       inkscape:connector-type="polyline"
       inkscape:connector-curvature="0"
       inkscape:label="path633" />
    <path
       style="font-variation-settings:normal;vector-effect:none;fill:#0000ff;fill-opacity:1;fill-rule:evenodd;stroke:#0000ff;stroke-width:0.630803;stroke-linecap:butt;stroke-linejoin:miter;stroke-miterlimit:4;stroke-dasharray:0.630803, 1.89241;stroke-dashoffset:0;stroke-opacity:1;-inkscape-stroke:none;marker-end:url(#marker2393-3);stop-color:#000000"
       d="M 237.12124,162.43811 261.109,179.75346"
       id="path4585-1"
       inkscape:connector-type="polyline"
       inkscape:connector-curvature="0" />
  </g>
</svg>
